<svg width="42" height="42" viewBox="0 0 42 42" fill="none" xmlns="http://www.w3.org/2000/svg">
<g clip-path="url(#clip0_1158_8597)">
<path d="M21 42C32.598 42 42 32.598 42 21C42 9.40202 32.598 0 21 0C9.40202 0 0 9.40202 0 21C0 32.598 9.40202 42 21 42Z" fill="#F0F0F0"/>
<path d="M40.6943 28.303C41.5385 26.028 42.0005 23.5674 42.0005 20.9986C42.0005 18.4299 41.5385 15.9693 40.6943 13.6943H1.30666C0.462555 15.9693 0.000473022 18.4299 0.000473022 20.9986C0.000473022 23.5674 0.462555 26.028 1.30666 28.303L21.0005 30.129L40.6943 28.303Z" fill="#0052B4"/>
<path d="M21.0006 41.9994C30.0298 41.9994 37.7272 36.3005 40.6944 28.3037H1.30676C4.27392 36.3005 11.9713 41.9994 21.0006 41.9994Z" fill="#D80027"/>
</g>
<defs>
<clipPath id="clip0_1158_8597">
<rect width="42" height="42" fill="white"/>
</clipPath>
</defs>
</svg>
