<svg width="42" height="42" viewBox="0 0 42 42" fill="none" xmlns="http://www.w3.org/2000/svg">
<g clip-path="url(#clip0_1158_8622)">
<path d="M0.991991 14.6084C0.348702 16.6237 0.000314712 18.7708 0.000396743 20.9995C0.000314712 23.2282 0.348784 25.3754 0.992073 27.3908L21.0004 28.3039L41.0087 27.3909C41.6519 25.3755 42.0005 23.2282 42.0005 20.9996C42.0004 18.7708 41.652 16.6237 41.0087 14.6083L21.0004 13.6953L0.991991 14.6084Z" fill="#F0F0F0"/>
<path d="M41.0081 14.6083L20.9997 13.6953L0.991329 14.6083C0.800689 15.2058 0.636544 15.8151 0.498978 16.4344H41.5002C41.3628 15.815 41.1987 15.2057 41.0081 14.6083Z" fill="#D80027"/>
<path d="M0.49884 25.5654C0.636243 26.1848 0.800387 26.7939 0.991028 27.3914L0.992997 27.3915L20.9993 28.3045L41.0076 27.3915C41.1982 26.794 41.3624 26.1848 41.4999 25.5654H0.49884Z" fill="#D80027"/>
<path d="M21.0007 42.0013C30.37 42.0013 38.3049 35.8651 41.009 27.3926H0.992447C3.69661 35.865 11.6317 42.0013 21.0007 42.0013Z" fill="#6DA544"/>
<path d="M21.0001 -0.000976562C11.631 -0.00089453 3.69613 6.13529 0.991806 14.6077L41.0084 14.6078C38.3044 6.13521 30.3694 -0.00105859 21.0001 -0.000976562Z" fill="#338AF3"/>
<path d="M9.59609 8.67405C9.59609 6.70719 10.9784 5.0641 12.8243 4.661C12.5407 4.59898 12.2463 4.56543 11.9439 4.56543C9.67475 4.56543 7.83521 6.4049 7.83521 8.67413C7.83521 10.9434 9.67459 12.7828 11.9439 12.7828C12.2463 12.7828 12.5406 12.7492 12.8243 12.6873C10.9785 12.284 9.59609 10.6409 9.59609 8.67405Z" fill="#F0F0F0"/>
<path d="M15.2519 10.54L15.53 11.396H16.43L15.7019 11.9251L15.98 12.7811L15.2519 12.2521L14.5236 12.7811L14.8018 11.9251L14.0736 11.396H14.9737L15.2519 10.54Z" fill="#F0F0F0"/>
<path d="M18.1258 10.54L18.404 11.396H19.304L18.5758 11.9251L18.854 12.7811L18.1258 12.2521L17.3976 12.7811L17.6758 11.9251L16.9477 11.396H17.8477L18.1258 10.54Z" fill="#F0F0F0"/>
<path d="M20.9978 10.54L21.2759 11.396H22.176L21.4478 11.9251L21.7259 12.7811L20.9978 12.2521L20.2695 12.7811L20.5478 11.9251L19.8195 11.396H20.7197L20.9978 10.54Z" fill="#F0F0F0"/>
<path d="M23.8716 10.54L24.1497 11.396H25.0497L24.3216 11.9251L24.5998 12.7811L23.8716 12.2521L23.1433 12.7811L23.4215 11.9251L22.6933 11.396H23.5933L23.8716 10.54Z" fill="#F0F0F0"/>
<path d="M26.7439 10.54L27.0221 11.396H27.9221L27.194 11.9251L27.4722 12.7811L26.7439 12.2521L26.0157 12.7811L26.2939 11.9251L25.5658 11.396H26.4658L26.7439 10.54Z" fill="#F0F0F0"/>
<path d="M18.1258 7.55176L18.404 8.40767H19.304L18.5758 8.93686L18.854 9.79277L18.1258 9.26375L17.3976 9.79277L17.6758 8.93686L16.9477 8.40767H17.8477L18.1258 7.55176Z" fill="#F0F0F0"/>
<path d="M20.9978 7.55176L21.2759 8.40767H22.176L21.4478 8.93686L21.7259 9.79277L20.9978 9.26375L20.2695 9.79277L20.5478 8.93686L19.8195 8.40767H20.7197L20.9978 7.55176Z" fill="#F0F0F0"/>
<path d="M23.8716 7.55176L24.1497 8.40767H25.0497L24.3216 8.93686L24.5998 9.79277L23.8716 9.26375L23.1433 9.79277L23.4215 8.93686L22.6933 8.40767H23.5933L23.8716 7.55176Z" fill="#F0F0F0"/>
<path d="M26.7439 7.55176L27.0221 8.40767H27.9221L27.194 8.93686L27.4722 9.79277L26.7439 9.26375L26.0157 9.79277L26.2939 8.93686L25.5658 8.40767H26.4658L26.7439 7.55176Z" fill="#F0F0F0"/>
<path d="M20.9978 4.56445L21.2759 5.42053H22.176L21.4478 5.94955L21.7259 6.80563L20.9978 6.27661L20.2695 6.80563L20.5478 5.94955L19.8195 5.42053H20.7197L20.9978 4.56445Z" fill="#F0F0F0"/>
<path d="M23.8716 4.56445L24.1497 5.42053H25.0497L24.3216 5.94955L24.5998 6.80563L23.8716 6.27661L23.1433 6.80563L23.4215 5.94955L22.6933 5.42053H23.5933L23.8716 4.56445Z" fill="#F0F0F0"/>
<path d="M26.7439 4.56445L27.0221 5.42053H27.9221L27.194 5.94955L27.4722 6.80563L26.7439 6.27661L26.0157 6.80563L26.2939 5.94955L25.5658 5.42053H26.4658L26.7439 4.56445Z" fill="#F0F0F0"/>
</g>
<defs>
<clipPath id="clip0_1158_8622">
<rect width="42" height="42" fill="white"/>
</clipPath>
</defs>
</svg>
