<svg width="34" height="34" viewBox="0 0 34 34" fill="none" xmlns="http://www.w3.org/2000/svg">
<circle cx="17" cy="17" r="16" stroke="#00C2FF" stroke-width="2"/>
<rect x="8.5" y="16.5" width="17" height="1" rx="0.5" fill="#00C2FF" stroke="#00C2FF"/>
</svg>
